[
    {
        "nExperienceID": 1,
        "cName": "Minimalistic Copenhagen",
        "txtDescription": "A tour of the wonderfully minimalistic city of Copenhagen where you can experience the Nordic life",
        "nPrice": 399,
        "nProviderID": 1,
        "cCity": "Copenhagen",
        "cCountry": "Denmark"
    },
    {
        "nExperienceID": 2,
        "cName": "London walking tour",
        "txtDescription": "Experience the great British city of London on foot. Cheers!",
        "nPrice": 250,
        "nProviderID": 1,
        "cCity": "London",
        "cCountry": "UK"
    },
    {
        "nExperienceID": 3,
        "cName": "Experience 3",
        "txtDescription": "This is experience 3 for testing purposes",
        "nPrice": 1337,
        "nProviderID": 2,
        "cCity": "Vienna",
        "cCountry": "Austria"
    },
    {
        "nExperienceID": 4,
        "cName": "Experience 4",
        "txtDescription": "This is experience 4 for testing purposes",
        "nPrice": 1337,
        "nProviderID": 3,
        "cCity": "Alicante",
        "cCountry": "Spain"
    },
    {
        "nExperienceID": 5,
        "cName": "Experience 5",
        "txtDescription": "This is experience 5 for testing purposes",
        "nPrice": 1337,
        "nProviderID": 4,
        "cCity": "Barcelona",
        "cCountry": "Spain"
    },
    {
        "nExperienceID": 6,
        "cName": "Experience 6",
        "txtDescription": "This is experience 6 for testing purposes",
        "nPrice": 1337,
        "nProviderID": 5,
        "cCity": "Moscow",
        "cCountry": "Russia"
    },
    {
        "nExperienceID": 7,
        "cName": "Experience 7",
        "txtDescription": "This is experience 7 for testing purposes",
        "nPrice": 1337,
        "nProviderID": 6,
        "cCity": "Bucharest",
        "cCountry": "Romania"
    },
    {
        "nExperienceID": 8,
        "cName": "Experience 8",
        "txtDescription": "This is experience 8 for testing purposes",
        "nPrice": 1337,
        "nProviderID": 5,
        "cCity": "Milan",
        "cCountry": "Italy"
    },
    {
        "nExperienceID": 9,
        "cName": "Experience 9",
        "txtDescription": "This is experience 9 for testing purposes",
        "nPrice": 1337,
        "nProviderID": 6,
        "cCity": "Milan",
        "cCountry": "Italy"
    },
    {
        "nExperienceID": 10,
        "cName": "Experience 10",
        "txtDescription": "This is experience 10 for testing purposes",
        "nPrice": 1337,
        "nProviderID": 2,
        "cCity": "Phuket",
        "cCountry": "Thailand"
    }
]